C:\Users\spattanayak\Desktop\Prathima\maven\Sample\src\main\java\com\service\UserService.java
C:\Users\spattanayak\Desktop\Prathima\maven\Sample\src\main\java\com\bean\UserBean.java
C:\Users\spattanayak\Desktop\Prathima\maven\Sample\src\main\java\com\util\DBUtil.java
C:\Users\spattanayak\Desktop\Prathima\maven\Sample\src\main\java\com\dao\UserDao.java
C:\Users\spattanayak\Desktop\Prathima\maven\Sample\src\main\java\com\controller\LoginController.java
